[
    { 
     "COUNTY_NAME": "MOMBASA", 
     "CONSTITUENCY_NAME": "CHANGAMWE", 
     "CAW_NAME": "PORT REITZ", 
     "REGISTRATION_CENTRE_NAME": "BOMU PRIMARY SCHOOL",
     "VOTERS_PER_REGISTRATION_CENTRE": 9625, 
     "POLLING_STATION_NAME": "BOMU PRIMARY SCHOOL",
     "VOTERS_PER_POLLING_STATION": 687,
     "RESULTS":[
         {
             "POSITION":"PRESIDENTIAL",
             "CANDIDATES":[
                 {
                    "CANDIDATE_NAME":"RAILA ODINGA",
                    "RESULTS":"1000"
                 },
                 {
                    "CANDIDATE_NAME":"WILLIAM RUTO",
                    "RESULTS":"100000"
                 }
             ],
             "SPOILED_VOTES":12 
         },
         {
            "POSITION":"GOVERNOR",
            "CANDIDATES":[
                {
                   "CANDIDATE_NAME":"SUSAN KIHIKA",
                   "RESULTS":"100000"
                },
                {
                   "CANDIDATE_NAME":"LEE KINYAJUI",
                   "RESULTS":"102"
                }
            ],
            "SPOILED_VOTES":3 
        },
        {
            "POSITION":"SENATOR",
            "CANDIDATES":[
                {
                   "CANDIDATE_NAME":"SENATOR 1",
                   "RESULTS":"100000"
                },
                {
                   "CANDIDATE_NAME":"SENATOR 2",
                   "RESULTS":"102"
                }
            ],
            "SPOILED_VOTES":5
        },
        {
            "POSITION":"WOMAN REP",
            "CANDIDATES":[
                {
                   "CANDIDATE_NAME":"WOMAN REP 1",
                   "RESULTS":"100000"
                },
                {
                   "CANDIDATE_NAME":"WOMAN REP 2",
                   "RESULTS":"102"
                }
            ],
            "SPOILED_VOTES":5
        },
        {
            "POSITION":"MP",
            "CANDIDATES":[
                {
                   "CANDIDATE_NAME":"MP 1",
                   "RESULTS":"100000"
                },
                {
                   "CANDIDATE_NAME":"MP 2",
                   "RESULTS":"102"
                }
            ],
            "SPOILED_VOTES":5
        },
        {
            "POSITION":"MCA",
            "CANDIDATES":[
                {
                   "CANDIDATE_NAME":"MCA 1",
                   "RESULTS":"100000"
                },
                {
                   "CANDIDATE_NAME":"MCA 2",
                   "RESULTS":"102"
                }
            ],
            "SPOILED_VOTES":5
        }
     ]  
    },
    {
        
    }
]